^C:\USERS\USER\SOURCE\REPOS\HELPERS.H\DEBUG\HELPERS.OBJ|C:\USERS\USER\SOURCE\REPOS\HELPERS.H\DEBUG\SOURCE.OBJ
/OUT:"C:\USERS\USER\SOURCE\REPOS\HELPERS.H\DEBUG\HELPERS.H.EXE" /INCREMENTAL /NOLOGO KERNEL32.LIB USER32.LIB GDI32.LIB WINSPOOL.LIB COMDLG32.LIB ADVAPI32.LIB SHELL32.LIB OLE32.LIB OLEAUT32.LIB UUID.LIB ODBC32.LIB ODBCCP32.LIB /MANIFEST /MANIFESTUAC:"level='asInvoker' uiAccess='false'" /manifest:embed /DEBUG:FASTLINK /PDB:"C:\USERS\USER\SOURCE\REPOS\HELPERS.H\DEBUG\HELPERS.H.PDB" /SUBSYSTEM:CONSOLE /TLBID:1 /DYNAMICBASE /NXCOMPAT /IMPLIB:"C:\USERS\USER\SOURCE\REPOS\HELPERS.H\DEBUG\HELPERS.H.LIB" /MACHINE:X86 DEBUG\HELPERS.OBJ
DEBUG\SOURCE.OBJ
