^C:\USERS\USER\SOURCE\REPOS\CONSOLEAPPLICATION5\HOMEWORK_18.CPP|C:\USERS\USER\SOURCE\REPOS\CONSOLEAPPLICATION5\STACK.H
C:\USERS\USER\SOURCE\REPOS\CONSOLEAPPLICATION5\DEBUG\VC142.PDB
C:\USERS\USER\SOURCE\REPOS\CONSOLEAPPLICATION5\DEBUG\VC142.IDB
C:\USERS\USER\SOURCE\REPOS\CONSOLEAPPLICATION5\DEBUG\HOMEWORK_18.OBJ
C:\USERS\USER\SOURCE\REPOS\CONSOLEAPPLICATION5\DEBUG\STACK.OBJ
^C:\USERS\USER\SOURCE\REPOS\CONSOLEAPPLICATION5\STACK.H
C:\USERS\USER\SOURCE\REPOS\CONSOLEAPPLICATION5\DEBUG\VC142.PDB
^C:\USERS\USER\SOURCE\REPOS\CONSOLEAPPLICATION5\HOMEWORK_18.CPP
C:\USERS\USER\SOURCE\REPOS\CONSOLEAPPLICATION5\DEBUG\VC142.PDB
